Flights from NYC airports
…
Code

# Had an arrival delay of two or more hours (> 120 minutes)
flights %>% 
  filter(arr_delay > 120)

# A tibble: 10,034 × 19
    year month   day dep_time sched_dep_time dep_delay arr_time sched_arr_time
   <int> <int> <int>    <int>          <int>     <dbl>    <int>          <int>
 1  2013     1     1      811            630       101     1047            830
 2  2013     1     1      848           1835       853     1001           1950
 3  2013     1     1      957            733       144     1056            853
 4  2013     1     1     1114            900       134     1447           1222
 5  2013     1     1     1505           1310       115     1638           1431
 6  2013     1     1     1525           1340       105     1831           1626
 7  2013     1     1     1549           1445        64     1912           1656
 8  2013     1     1     1558           1359       119     1718           1515
 9  2013     1     1     1732           1630        62     2028           1825
10  2013     1     1     1803           1620       103     2008           1750
# ℹ 10,024 more rows
# ℹ 11 more variables: arr_delay <dbl>, carrier <chr>, flight <int>,
#   tailnum <chr>, origin <chr>, dest <chr>, air_time <dbl>, distance <dbl>,
#   hour <dbl>, minute <dbl>, time_hour <dttm>

Code

# Flew to Houston (IAH or HOU)
flights %>% 
  # filter for multiple destinations using OR operator
  filter(dest == "IAH" | dest == "HOU") 

# A tibble: 9,313 × 19
    year month   day dep_time sched_dep_time dep_delay arr_time sched_arr_time
   <int> <int> <int>    <int>          <int>     <dbl>    <int>          <int>
 1  2013     1     1      517            515         2      830            819
 2  2013     1     1      533            529         4      850            830
 3  2013     1     1      623            627        -4      933            932
 4  2013     1     1      728            732        -4     1041           1038
 5  2013     1     1      739            739         0     1104           1038
 6  2013     1     1      908            908         0     1228           1219
 7  2013     1     1     1028           1026         2     1350           1339
 8  2013     1     1     1044           1045        -1     1352           1351
 9  2013     1     1     1114            900       134     1447           1222
10  2013     1     1     1205           1200         5     1503           1505
# ℹ 9,303 more rows
# ℹ 11 more variables: arr_delay <dbl>, carrier <chr>, flight <int>,
#   tailnum <chr>, origin <chr>, dest <chr>, air_time <dbl>, distance <dbl>,
#   hour <dbl>, minute <dbl>, time_hour <dttm>

Code

# Were operated by United (`UA`), American (`AA`), or Delta (`DL`)
flights %>% 
  # filter for multiple carriers using a vector (list) of possible values
  filter(carrier %in% c("UA","AA","DL"))

# A tibble: 139,504 × 19
    year month   day dep_time sched_dep_time dep_delay arr_time sched_arr_time
   <int> <int> <int>    <int>          <int>     <dbl>    <int>          <int>
 1  2013     1     1      517            515         2      830            819
 2  2013     1     1      533            529         4      850            830
 3  2013     1     1      542            540         2      923            850
 4  2013     1     1      554            600        -6      812            837
 5  2013     1     1      554            558        -4      740            728
 6  2013     1     1      558            600        -2      753            745
 7  2013     1     1      558            600        -2      924            917
 8  2013     1     1      558            600        -2      923            937
 9  2013     1     1      559            600        -1      941            910
10  2013     1     1      559            600        -1      854            902
# ℹ 139,494 more rows
# ℹ 11 more variables: arr_delay <dbl>, carrier <chr>, flight <int>,
#   tailnum <chr>, origin <chr>, dest <chr>, air_time <dbl>, distance <dbl>,
#   hour <dbl>, minute <dbl>, time_hour <dttm>

Code

# Departed in summer (July, August, and September)
flights %>%
  # filter for multiple months using a vector of possible numerical month values
  filter(month %in% c(7,8,9))

# A tibble: 86,326 × 19
    year month   day dep_time sched_dep_time dep_delay arr_time sched_arr_time
   <int> <int> <int>    <int>          <int>     <dbl>    <int>          <int>
 1  2013     7     1        1           2029       212      236           2359
 2  2013     7     1        2           2359         3      344            344
 3  2013     7     1       29           2245       104      151              1
 4  2013     7     1       43           2130       193      322             14
 5  2013     7     1       44           2150       174      300            100
 6  2013     7     1       46           2051       235      304           2358
 7  2013     7     1       48           2001       287      308           2305
 8  2013     7     1       58           2155       183      335             43
 9  2013     7     1      100           2146       194      327             30
10  2013     7     1      100           2245       135      337            135
# ℹ 86,316 more rows
# ℹ 11 more variables: arr_delay <dbl>, carrier <chr>, flight <int>,
#   tailnum <chr>, origin <chr>, dest <chr>, air_time <dbl>, distance <dbl>,
#   hour <dbl>, minute <dbl>, time_hour <dttm>

Code

# Arrived more than two hours late, but didn't leave late
flights %>% 
  # filter with criteria for departure and arrival delay using AND operator
  filter(dep_delay <= 0 & arr_delay > 120)

# A tibble: 29 × 19
    year month   day dep_time sched_dep_time dep_delay arr_time sched_arr_time
   <int> <int> <int>    <int>          <int>     <dbl>    <int>          <int>
 1  2013     1    27     1419           1420        -1     1754           1550
 2  2013    10     7     1350           1350         0     1736           1526
 3  2013    10     7     1357           1359        -2     1858           1654
 4  2013    10    16      657            700        -3     1258           1056
 5  2013    11     1      658            700        -2     1329           1015
 6  2013     3    18     1844           1847        -3       39           2219
 7  2013     4    17     1635           1640        -5     2049           1845
 8  2013     4    18      558            600        -2     1149            850
 9  2013     4    18      655            700        -5     1213            950
10  2013     5    22     1827           1830        -3     2217           2010
# ℹ 19 more rows
# ℹ 11 more variables: arr_delay <dbl>, carrier <chr>, flight <int>,
#   tailnum <chr>, origin <chr>, dest <chr>, air_time <dbl>, distance <dbl>,
#   hour <dbl>, minute <dbl>, time_hour <dttm>

Code

# Were delayed by at least an hour, but made up over 30 minutes in flight
flights %>%
  # filter with criteria for departure and make up time using sequential filters
  filter(dep_delay >= 60) %>% 
  filter((dep_delay - arr_delay) > 30)

# A tibble: 1,844 × 19
    year month   day dep_time sched_dep_time dep_delay arr_time sched_arr_time
   <int> <int> <int>    <int>          <int>     <dbl>    <int>          <int>
 1  2013     1     1     2205           1720       285       46           2040
 2  2013     1     1     2326           2130       116      131             18
 3  2013     1     3     1503           1221       162     1803           1555
 4  2013     1     3     1839           1700        99     2056           1950
 5  2013     1     3     1850           1745        65     2148           2120
 6  2013     1     3     1941           1759       102     2246           2139
 7  2013     1     3     1950           1845        65     2228           2227
 8  2013     1     3     2015           1915        60     2135           2111
 9  2013     1     3     2257           2000       177       45           2224
10  2013     1     4     1917           1700       137     2135           1950
# ℹ 1,834 more rows
# ℹ 11 more variables: arr_delay <dbl>, carrier <chr>, flight <int>,
#   tailnum <chr>, origin <chr>, dest <chr>, air_time <dbl>, distance <dbl>,
#   hour <dbl>, minute <dbl>, time_hour <dttm>
…
  # Deleting rows with unknown tail number (otherwise distorts statistics)
  drop_na(tailnum) %>%
    
  # Creating a dataframe grouped by plane
  group_by(tailnum) %>%
  
  # Counting number of flights by plane
  summarize(count_flights = n()) %>% 
  
  # Arranging in descending order to find the plane that travelled the most
  arrange(desc(count_flights))
)

# A tibble: 4,043 × 2
   tailnum count_flights
   <chr>           <int>
 1 N725MQ            575
 2 N722MQ            513
 3 N723MQ            507
 4 N711MQ            486
 5 N713MQ            483
 6 N258JB            427
 7 N298JB            407
 8 N353JB            404
 9 N351JB            402
10 N735MQ            396
# ℹ 4,033 more rows
…
# Save and print a table containing destinanations of the most frequent flyer
(
frequent_flyer_destinations <- flights %>% 
  
  # Selecting only the most frequently flying plane using a newly created list
  filter(tailnum %in% frequent_flyer) %>%
    
  # Selecting only year 2013
  filter(year == 2013) %>%
    
  # Showing only columns for plane (tail number) and destination
  select(c("tailnum","dest"))
)

# A tibble: 393 × 2
   tailnum dest 
   <chr>   <chr>
 1 N328AA  LAX  
 2 N328AA  LAX  
 3 N328AA  LAX  
 4 N328AA  LAX  
 5 N328AA  LAX  
 6 N328AA  LAX  
 7 N328AA  LAX  
 8 N328AA  LAX  
 9 N328AA  LAX  
10 N328AA  LAX  
# ℹ 383 more rows
…
Code

# Get a dataframe for which year of manufacture is unknown
planes %>% 
  filter(is.na(year))

# A tibble: 70 × 9
   tailnum  year type              manufacturer model engines seats speed engine
   <chr>   <int> <chr>             <chr>        <chr>   <int> <int> <int> <chr> 
 1 N14558     NA Fixed wing multi… EMBRAER      EMB-…       2    55    NA Turbo…
 2 N15555     NA Fixed wing multi… EMBRAER      EMB-…       2    55    NA Turbo…
 3 N15574     NA Fixed wing multi… EMBRAER      EMB-…       2    55    NA Turbo…
 4 N174US     NA Fixed wing multi… AIRBUS INDU… A321…       2   199    NA Turbo…
 5 N177US     NA Fixed wing multi… AIRBUS INDU… A321…       2   199    NA Turbo…
 6 N181UW     NA Fixed wing multi… AIRBUS INDU… A321…       2   199    NA Turbo…
 7 N18557     NA Fixed wing multi… EMBRAER      EMB-…       2    55    NA Turbo…
 8 N194UW     NA Fixed wing multi… AIRBUS       A321…       2   199    NA Turbo…
 9 N238JB     NA Fixed wing multi… EMBRAER      ERJ …       2    20    NA Turbo…
10 N271LV     NA Fixed wing multi… BOEING       737-…       2   149    NA Turbo…
# ℹ 60 more rows

Code

# Basic dataframe of manufacturers and number of planes
planes_number <- planes %>% 
  group_by(manufacturer) %>% 
  summarize(count = n()) %>% 
  arrange(desc(count))

# Take a look at the result
planes_number

# A tibble: 35 × 2
   manufacturer                  count
   <chr>                         <int>
 1 BOEING                         1630
 2 AIRBUS INDUSTRIE                400
 3 BOMBARDIER INC                  368
 4 AIRBUS                          336
 5 EMBRAER                         299
 6 MCDONNELL DOUGLAS               120
 7 MCDONNELL DOUGLAS AIRCRAFT CO   103
 8 MCDONNELL DOUGLAS CORPORATION    14
 9 CANADAIR                          9
10 CESSNA                            9
# ℹ 25 more rows
…
For some reason, R does not calculate the median for arr_delay variable in summarize section. I have used multiple ways to get to the result, but the problem seems to be narrowed down to non-calculating median value.

Problem 8: Let’s take a closer look at what carriers service the route to San Francisco International (SFO). Join the flights and airlines tables and count which airlines flew the most to SFO. Produce a new dataframe, fly_into_sfo that contains three variables: the name of the airline, e.g., United Air Lines Inc. not UA, the count (number) of times it flew to SFO, and the percent of the trips that that particular airline flew to SFO.

Code

# Join the two tables to enrich flights data with airlines data
# We want to preserve flights data, hence left join
flights_enriched <- left_join(x = flights, y = airlines, by = "carrier")

# Take a look at data
flights_enriched

# A tibble: 336,776 × 20
    year month   day dep_time sched_dep_time dep_delay arr_time sched_arr_time
   <int> <int> <int>    <int>          <int>     <dbl>    <int>          <int>
 1  2013     1     1      517            515         2      830            819
 2  2013     1     1      533            529         4      850            830
 3  2013     1     1      542            540         2      923            850
 4  2013     1     1      544            545        -1     1004           1022
 5  2013     1     1      554            600        -6      812            837
 6  2013     1     1      554            558        -4      740            728
 7  2013     1     1      555            600        -5      913            854
 8  2013     1     1      557            600        -3      709            723
 9  2013     1     1      557            600        -3      838            846
10  2013     1     1      558            600        -2      753            745
# ℹ 336,766 more rows
# ℹ 12 more variables: arr_delay <dbl>, carrier <chr>, flight <int>,
#   tailnum <chr>, origin <chr>, dest <chr>, air_time <dbl>, distance <dbl>,
#   hour <dbl>, minute <dbl>, time_hour <dttm>, name <chr>
…
